{
  "name": "Programming Course",
  "duration": "4 months",
  "topics": [
              {
                "topic": "Maven",
                "duration":"2 hours"
              },
              {
                "topic": "JSON",
                "duration": "2 hours"
              },
              {
                "topic": "REST",
                "duration": "2 hours"
              }
            ],
  "participants": [
  	{
  	"name":"",
  	"surname":"",
  	"phoneNumber":"",
  	"email":""
  }
  ]
}