01091fe8-6eb8-458e-9084-7f8a69e8f623,Lukasz,Franczuk,luk.franczuk@gmail.com,Java Programming
0cf2b8e3-306c-4502-9b62-49db55ed4ecd,Luk,Surname,email33223,ssdasd
136e513c-f6db-45af-ac3c-b83cfd078c39,Jan,Test,bla@bla.pl,Rest API
18763182-750f-4493-a592-f108b155e44b,Jacek,Kania,jacekk@gmail.com,wladza i pieniadze
19c0cdbb-1b6d-40c8-8999-041d55921928,Lukasz,Franczuk,luk.franczuk@gmail.com,Java Programming
1c48a8e1-9126-4503-9895-3d0860dfc7f9,Lukasz,Franczuk,luk.franczuk@fjhsdkjfsdl.com,Java Programming
1ca8069d-efd2-4726-aa78-0c7ff99b0123,Jan,Kowalsky,jk@g.com,Football
2c6f45d4-1e32-4345-bd92-cfc026f99813,And , Szad, jiwdjiwd@iejdc.pl,jidwjiqdwop dwqiijdwqpo 
35b74fed-4976-4603-a5be-572fa41266f4,Anna,S,annas@gmail.com,cos
3646e866-7579-46b2-9b4f-a9abb2ca237a,Lukasz,TestFromApp,testFromApp@gmail.com,Rest
38839314-3a4e-43b6-b72a-a5e4ccd6cb5e,Ewa,Ewulska,ewa@ewa,ewa
3a6973b7-7609-43c4-9849-8efbfb86c9ff,Andrzej,Nowak,anowak@gmail.com,nothing
3cfb1376-3fee-4d1e-a597-2c88b36b0f64,Jan,Kowalsky,jk@g.com,Football
47cc168a-ce52-4940-8c33-548fef8cffdf,Lukasz,Franczuk,luk.franczuk@gmail.com,Java Programming
4ac636c9-15ac-4a44-89af-88dd7bef5d70,Jan,Kowalsky,jk@g.com,Football
521e8295-2c15-4d41-bf7c-67883aa03f66,Jan,Kowalsky,jk@g.com,Football
530bff5b-6a5b-45f3-9986-cbd5e2b4d2af,John,Kowalski,jan@gmail.com,lalala
53f7682b-a532-4038-8a8d-a2e615d5257f,Jan,Kowalsky,jk@g.com,Football
556ef193-6a2a-40d1-8cbe-38537ada067a,name,surname,aaaa@aaa,aaaaaa
5d2045d9-8312-4f5a-9a07-942fb503c48c,Anna,S,annas@gmail.com,cos
62e0e424-a8ea-4d63-9e6b-2c23c7109397,Jakub,M?ocek,MJ@g.pl,Baseball,Basketball
63545ff4-a71d-4d59-8176-22f04c2cbad3,name,surname,aaaa@aaa,aaaaaa
66f7967d-2a8d-4d1d-9249-bcda80cb07a1,KIKI2,KOKO2,sda@asd.pl,strzelanie z luku
6805b2f9-f806-4ba1-a97e-7a69a7eaa006,name,surname,aaaa@aaa,aaaaaa
6e3e9031-7668-40f1-ad4e-e6ed05a0560f,Aa,Dd,AaBb@ab.com,Java :-(
6e3e9031-7668-40f1-ad4e-e6ed05a0560f1,Aa,Dd,AaBb@ab.com,Java :-(
6e3e9031-7668-40f1-ad4e-e6ed05a0560f999,Aa,Dd,AaBb@ab.com,Java :-(
6e3e9031-7668-40f1-ad4e-e6ed05a0560ffvhgvfjhfvg,Aa,Dd,AaBb@ab.com,Java :-(
6ed968d7-33b4-447b-87d3-2806bf7b2dfd,Jakub,M?ocek,MJ@g.pl,Baseball,Basketball
6jhfvg,AAAAAAAA ,BBBBBBBBBBBBB,ewfewfewf,3333333333
71b51263-be9c-45c6-b2bc-db9a10ec7fc4,And , Szad, jiwdjiwd@iejdc.pl,jidwjiqdwop dwqiijdwqpo 
73925654-e7bc-4bac-abde-22212abf7858,xaaxxaxax ,ppapapapapapap, tatatta.pl,jidwjiqdwop dwqiijdwqpo 
7a2d8a45-6c00-4467-a98f-a002da75ccae,Anna,S,annas@gmail.com,cos
8131179b-546c-4336-b7ff-e86fdcdef9d4,Jakub,M?ocek,MJ@g.pl,Baseball,Basketball
86b41362-da43-4e38-bd98-d4d26341e422,Andrzej,Grabowski,anowak@gmail.com,jednak cos
8789798,John,Kowalski,jan@gmail.com,lalala
8a18eab9-e2e6-46f6-a8f9-eed2290f38cf,Andrzej,Nowak,anowak@gmail.com,nothing
91f250bd-31be-4691-a951-fd818818f886,Jan,Kowalsky,jk@g.com,Football
924e92d8-46d0-4adc-8fd1-f0bb2157063c,Andrzej,Nowak,anowak@gmail.com,nothing
9a44050d-cc2c-4ea5-aac1-ca5ec44fabbe,Lukasz,TestFromApp,testFromApp@gmail.com,Rest
9ef4eb57-3fd7-4828-a7da-1f52cd9a9129,Apacz2,Apacz2,apacz2@apacz2,marchewka2
ac23b3b7-6c26-43f1-aa39-a31b2562c55c,null,surname,ziana@zmiana.com,some interests
b66b21ba-ce23-4b17-944e-b02e952c0446,name1,surname,ziana@zmiana.com,some interests
b8ae5d9f-92ac-440f-8ac7-9d629899d533,Michal,Greda,greda@gmail.com,bezrobotny
b900a987-7ac2-4fbe-bd2c-b7297467eb93,Jacek,Kania,jacekk@gmail.com,wladza i pieniadze
bartek,John,Kowalski,jan@gmail.com,lalala
bbfc3013-7e8a-42a2-9fb8-5799a88f7057,Andrzej,Nowak,anowak@gmail.com,nothing
c99c0549-2ab2-4745-bcec-80f3d7af8398,Jacek,Kania,jacekk@gmail.com,wladza i pieniadze
ca337941-4c52-4edc-8d9f-fc376132cdaa,Jan,Test,bla@bla.pl,Rest API
cce644ad-ff91-4316-9040-ec7e4db456e0,Ewa,Ewulska,ewa@ewa,ewa
de790e10-567a-4735-b7fa-2ebaf131b482,And , Szad, jiwdjiwd@iejdc.pl,jidwjiqdwop dwqiijdwqpo 
e79ad780-173e-4a81-8c92-ab14242dde01,Andrzej,Nowak,anowak@gmail.com,nothing
e8404b3b-b85f-423b-adee-db0f31bcca1b,Luk,Surname,email33223,ssdasd
e9b0b84d-ddf5-46d4-9a5d-ebe1d5da5a77,And , Szad, jiwdjiwd@iejdc.pl,jidwjiqdwop dwqiijdwqpo 
ebd3607a-7f27-4ea7-b7aa-98c90baecd75,Jacek,Kania,jacekk@gmail.com,wladza i pieniadze
ef66250a-8d82-4fde-bdb3-18f359109194,Jan,Test,bla@bla.pl,Rest API
ef6f57b8-eace-466a-bad9-e671b6a37cc0,Apacz,Apacz,apacz@apacz,marchewka
f854f173-2fbf-4de8-9019-9a01a228910c,Jan,Test,bla@bla.pl,lalala
f87cb8ec-d71f-451e-9442-995fc4bd8599,Apacz,Apacz,apacz@apacz,marchewka
f8a23dd6-77bc-4503-96f7-60ac1447ea3a,Ewa,Ewulska,ewa@ewa,ewa
klnjknjh87yjyu7,John,Kowalski,jan@gmail.com,lalala
test,Aa1,DdAa8888,AaBb@ab.com,Java :-(
