[ {
  "name" : "Marian Kowalski",
  "age" : 50,
  "orders" : null,
  "adress" : {
    "city" : "Warszawa",
    "street" : "Mila",
    "number" : 23
  }
}, {
  "name" : "Pawl Kukiz",
  "age" : 48,
  "orders" : null,
  "adress" : {
    "city" : "Warszawa",
    "street" : "3 Maja",
    "number" : 23
  }
}, {
  "name" : "Agata Buzek",
  "age" : 37,
  "orders" : null,
  "adress" : null
} ]